Lookup,PRS,Ultipro_ID,Provider,Emp_ID_Global_ID,Site,Primary_Site,Job_title,Shift_Hourly,Region,Division,Of_Shifts_Before_ML,EE_Info,Salary,Day_Rate,Night_Rate,Swing_Rate,Wknd_Day_Rate,Wknd_Night_Rate,Wknd_Swing_Rate,Base_Pay,ML_Rule,ML_Day_Rate,ML_Night_Rate,ML_Swing_Rate,ML_Wknd_Day_Rate,ML_Wknd_Night_Rate,ML_Wknd_Swing_Rate,ML_Tiers_Description,Moonlighting,Admin_Rate,APP_Supervision_Shift,Backup_Extra_Shift,Call_In_Shift,Clinic_Shift,Flex_Shift,Holiday_Rate,ICU_Shift,ICU_Night_Shift,Jeopardy_Shift,Lead_Rate,Lead_OT,Orientation_Shift,Paid_Time_Off_Rate,Palliative_Shift,PAT_Shift,Sick_Rate,Teaching_Rate,Teaching_Night_Shift,Telemed_Remote_Rate,Worked_Holiday_Shift_Premium_Rate,Other_Shifts,Admin_Stipend,APP_Director_Stipend,Asst_Med_Dir_Stipend,Chief_Stipend,Compass_Stipend,Hospitalist_Council_Stipend,Leadership_Stipend,Med_Dir_Stipend,Medical_Education_Stipend,Med_Ins_Stipend__TIG,NPP__Stipend,PCP_Relations_Stipend,Program_Director_Stipend,Residency_Stipend,RMD_Stipend,Scheduling_Stipend,Seniority_Stipend,Teaching_Stipend,Travel_Stipend,Other_Stipend,Quality_Withhold_Ddct,Treadmill,Recurring,Questions_Notes
aabbey170100,Nic,7953,"Miller-Abbey, Akita",aabbey,170100,X,Nurse Practitioner,S,Great Lakes,Buckeye,45,," 8,990.80 ",,,,,,,,Quarterly, 49.40 , 49.40 , 49.40 ,,,,,,,,,,,,,,,,,,,,,,,,,,,,,,,,,,,,,,,,,,,,,,,,,,,PTO 15 days per year ,,,,Yes,,,,,,,,,,,,,,,,,,,,,,,,,,,,,,,,,,,,,,,,,,,,,,,,,,,,,,,,,,
ayanilshtein110200,Jason,2890,"Yanilshtein, Alexey",ayanilshtein,110200,X,Hospitalist,S,A Team Region,Empire,,,,""," 1,318.68 "," 1,167.00 "," 1,167.00 "," 1,318.68 "," 1,167.00 ",,,,,,,,,,,,,,,,,,,,,,,,,,,,,,,,,,,,,,,,,,,,,,,,,,,,,,,,,,,,No,,,,,,,,,,,,,,,,,,,,,,,,,,,,,,,,,,,,,,,,,,,,,,,,,,,,,,,,,,
nprasad170100,Nic,9650,"Prasad, Nikhil",nprasad,170100,X,Hospitalist,S,Great Lakes,Buckeye,,,," 1,300.00 "," 1,725.00 ",,,,,,, 165.00 , 145.00 ,,,,,,,,,,,,,,,,,,,,,,,,,,,,,,,,,,,,,,,,,,,,,,,,,,,,,,,,Yes,,,,,,,,,,,,,,,,,,,,,,,,,,,,,,,,,,,,,,,,,,,,,,,,,,,,,,,,,,
vadike170500,Nic,5367,"Adike, Vivekananda",vadike,170500,X,Nocturnist,S,Great Lakes,Bengals,,,," 1,909.72 "," 1,909.72 "," 1,909.72 ",,,,,,,,,,,,,,,,,,,,,,,,,,,,,,,,,,,,,,,,,,,,,,,,,,,,,,,,-833,,,,,,,No,,,,,,,,,,,,,,,,,,,,,,,,,,,,,,,,,,,,,,,,,,,,,,,,,,,,,,,,,,
smcmillan040700,Jason,8603,"McMillan, Shadae",smcmillan,040700,X,Nurse Practitioner,S,A Team Region,SAT,45,," 10,416.67 ",,,,,,,,Quarterly, 686.81 , 686.81 , 686.81 ,,,,,,,,,,,,,,,,,,,,,,,,,,,,,,,,,,,,,,,,,,,,,,,,,,,,,,,Yes,,,,,,,,,,,,,,,,,,,,,,,,,,,,,,,,,,,,,,,,,,,,,,,,,,,,,,,,,,
schitti310100,Julie,9643,"Chitti, Sridhar",schitti,310100,X,Hospitalist,S,Gold Rush Region,Oak Barrel,45 ,,," 1,580.00 "," 1,650.00 "," 1,580.00 ",,,,,Quarterly,,,,,,,Total shifts over threshold paid at $300/shift,,,,,,,,,,,,,,, $131.67 ,,, $131.67 ,,,,,,,,,,,,,,,,,,,,,,,,,,,,,,,,,Yes,,,,,,,,,,,,,,,,,,,,,,,,,,,,,,,,,,,,,,,,,,,,,,,,,,,,,,,,,,
kamckay150600,Nic,9120,"McKay, Karon",kamckay,150600,X,Nurse Practitioner,S,Great Lakes,Bluegrass,42,," 10,833.33 ",,,,,,,,Monthly, 70.00 , 70.00 , 70.00 ,,,,,,,,,,,,,,,,,,,,,,,,,,,,,,,,,,,,,,,,,,,,,,,,,,,,,,,Yes,,,,,,,,,,,,,,,,,,,,,,,,,,,,,,,,,,,,,,,,,,,,,,,,,,,,,,,,,,
jbarno170800,Nic,9437,"Barno, Jill",jbarno,170800,X,Chief Hospitalist,S,Great Lakes,Buckeye,21,," 23,333.33 ",,,," 1,335.00 "," 1,715.00 ",,,,,,,,,,,,,,,,,,,,,,,,,,,,,,,,,,,,,,,,,,,,,,,,,,,,,,,,,,,,,Yes,,,,,,,,,,,,,,,,,,,,,,,,,,,,,,,,,,,,,,,,,,,,,,,,,,,,,,,,,,
jbarno171900,Nic,9437,"Barno, Jill",jbarno,171900,,Hospitalist,S,Great Lakes,Buckeye,21,,,,,," 1,335.00 "," 1,715.00 ",,,,,,,,,,,,,,,,,,,,,,,,,,,,,,,,,,,,,,,,,,,,,,,,,,,,,,,,,,,,,Yes,,,,,,,,,,,,,,,,,,,,,,,,,,,,,,,,,,,,,,,,,,,,,,,,,,,,,,,,,,
sisrael172000,Nic,4643,"Israel, Stacey",sisrael,172000,,Nurse Practitioner,S,Great Lakes,Buckeye,65,,,,,,,,,,Quarterly, 360.64 , 360.64 , 360.64 ,,,,,,,,150,,,,,,,,,,,,,,,,,,,,,,,,,,,,,,,,,,,,,,,,,,,,,,,Yes,,,,,,,,,,,,,,,,,,,,,,,,,,,,,,,,,,,,,,,,,,,,,,,,,,,,,,,,,,
sisrael170800,Nic,4643,"Israel, Stacey",sisrael,170800,X,Nurse Practitioner,S,Great Lakes,Buckeye,65,," 8,333.33 ",,,,,,,,Quarterly, 360.64 , 360.64 , 360.64 ,,,,,,,,150,,,,,,,,,,,,,,,,,,,,,,,,,,,,,,,,,,,,,,,,,,,,,,,Yes,,,,,,,,,,,,,,,,,,,,,,,,,,,,,,,,,,,,,,,,,,,,,,,,,,,,,,,,,,
